{
  "$schema": "./node_modules/ng-openapi-gen/ng-openapi-gen-schema.json",
  "input": "./openapi.json",
  "output": "src/dto/ng-openapi-gen",
  "fetchTimeout": 20000,
  "defaultTag": "Api",
  "ignoreUnusedModels": true,
  "removeStaleFiles": true,
  "modelIndex": true,
  "serviceIndex": true,
  "module": "ApiWarehouseModule",
  "indexFile": true,

  "templates": "./src/ng-openapi-gen-templates"
}
